hw4
…
glassdata<-read_delim("https://www4.stat.ncsu.edu/online/datasets/glass.data", 
                       delim = ",",
                       col_names = c("Id", "RI", "Na", "Mg", "Al", "Si","K","Ca", "Ba","Fe","Type_of_glass"))

Rows: 214 Columns: 11
── Column specification ────────────────────────────────────────────────────────
Delimiter: ","
dbl (11): Id, RI, Na, Mg, Al, Si, K, Ca, Ba, Fe, Type_of_glass

ℹ Use `spec()` to retrieve the full column specification for this data.
ℹ Specify the column types or set `show_col_types = FALSE` to quiet this message.

glassdata

# A tibble: 214 × 11
      Id    RI    Na    Mg    Al    Si     K    Ca    Ba    Fe Type_of_glass
   <dbl> <dbl> <dbl> <dbl> <dbl> <dbl> <dbl> <dbl> <dbl> <dbl>         <dbl>
 1     1  1.52  13.6  4.49  1.1   71.8  0.06  8.75     0  0                1
 2     2  1.52  13.9  3.6   1.36  72.7  0.48  7.83     0  0                1
 3     3  1.52  13.5  3.55  1.54  73.0  0.39  7.78     0  0                1
 4     4  1.52  13.2  3.69  1.29  72.6  0.57  8.22     0  0                1
 5     5  1.52  13.3  3.62  1.24  73.1  0.55  8.07     0  0                1
 6     6  1.52  12.8  3.61  1.62  73.0  0.64  8.07     0  0.26             1
 7     7  1.52  13.3  3.6   1.14  73.1  0.58  8.17     0  0                1
 8     8  1.52  13.2  3.61  1.05  73.2  0.57  8.24     0  0                1
 9     9  1.52  14.0  3.58  1.37  72.1  0.56  8.3      0  0                1
10    10  1.52  13    3.6   1.36  73.0  0.57  8.4      0  0.11             1
# ℹ 204 more rows
…
  ) %>% 
  select("Id", "RI", "Na", "Mg", "Al", "Si","K","Ca", "Ba","Fe","Type_of_glass2") %>% 
  rename(Type_of_glass = Type_of_glass2)

glassdata2

# A tibble: 214 × 11
      Id    RI    Na    Mg    Al    Si     K    Ca    Ba    Fe Type_of_glass    
   <dbl> <dbl> <dbl> <dbl> <dbl> <dbl> <dbl> <dbl> <dbl> <dbl> <chr>            
 1     1  1.52  13.6  4.49  1.1   71.8  0.06  8.75     0  0    building_windows…
 2     2  1.52  13.9  3.6   1.36  72.7  0.48  7.83     0  0    building_windows…
 3     3  1.52  13.5  3.55  1.54  73.0  0.39  7.78     0  0    building_windows…
 4     4  1.52  13.2  3.69  1.29  72.6  0.57  8.22     0  0    building_windows…
 5     5  1.52  13.3  3.62  1.24  73.1  0.55  8.07     0  0    building_windows…
 6     6  1.52  12.8  3.61  1.62  73.0  0.64  8.07     0  0.26 building_windows…
 7     7  1.52  13.3  3.6   1.14  73.1  0.58  8.17     0  0    building_windows…
 8     8  1.52  13.2  3.61  1.05  73.2  0.57  8.24     0  0    building_windows…
 9     9  1.52  14.0  3.58  1.37  72.1  0.56  8.3      0  0    building_windows…
10    10  1.52  13    3.6   1.36  73.0  0.57  8.4      0  0.11 building_windows…
# ℹ 204 more rows
…
yeastdata

# A tibble: 1,484 × 10
   seq_name     mcg   gvh   alm   mit   erl   pox   vac   nuc class
   <chr>      <dbl> <dbl> <dbl> <dbl> <dbl> <dbl> <dbl> <dbl> <chr>
 1 ADT1_YEAST  0.58  0.61  0.47  0.13   0.5   0    0.48  0.22 MIT  
 2 ADT2_YEAST  0.43  0.67  0.48  0.27   0.5   0    0.53  0.22 MIT  
 3 ADT3_YEAST  0.64  0.62  0.49  0.15   0.5   0    0.53  0.22 MIT  
 4 AAR2_YEAST  0.58  0.44  0.57  0.13   0.5   0    0.54  0.22 NUC  
 5 AATM_YEAST  0.42  0.44  0.48  0.54   0.5   0    0.48  0.22 MIT  
 6 AATC_YEAST  0.51  0.4   0.56  0.17   0.5   0.5  0.49  0.22 CYT  
 7 ABC1_YEAST  0.5   0.54  0.48  0.65   0.5   0    0.53  0.22 MIT  
 8 BAF1_YEAST  0.48  0.45  0.59  0.2    0.5   0    0.58  0.34 NUC  
 9 ABF2_YEAST  0.55  0.5   0.66  0.36   0.5   0    0.49  0.22 MIT  
10 ABP1_YEAST  0.4   0.39  0.6   0.15   0.5   0    0.58  0.3  CYT  
# ℹ 1,474 more rows

Start a chain that removes the seq_name and nuc columns.

yeastdata2<-yeastdata %>% 
  select("mcg", "gvh", "alm", "mit", "erl", "pox", "vac","class")

yeastdata2

# A tibble: 1,484 × 8
     mcg   gvh   alm   mit   erl   pox   vac class
   <dbl> <dbl> <dbl> <dbl> <dbl> <dbl> <dbl> <chr>
 1  0.58  0.61  0.47  0.13   0.5   0    0.48 MIT  
 2  0.43  0.67  0.48  0.27   0.5   0    0.53 MIT  
 3  0.64  0.62  0.49  0.15   0.5   0    0.53 MIT  
 4  0.58  0.44  0.57  0.13   0.5   0    0.54 NUC  
 5  0.42  0.44  0.48  0.54   0.5   0    0.48 MIT  
 6  0.51  0.4   0.56  0.17   0.5   0.5  0.49 CYT  
 7  0.5   0.54  0.48  0.65   0.5   0    0.53 MIT  
 8  0.48  0.45  0.59  0.2    0.5   0    0.58 NUC  
 9  0.55  0.5   0.66  0.36   0.5   0    0.49 MIT  
10  0.4   0.39  0.6   0.15   0.5   0    0.58 CYT  
# ℹ 1,474 more rows

Continue your chain to add columns corresponding to the mean and median of each numeric variable (mcg, gvh, alm, mit, erl, pox, and vac) at each class grouping (see the across() function as we did in the dplyr video!).

yeastdata3<-yeastdata2 %>% 
  group_by(class) %>%
  mutate(across(c(1:7), mean, .names = "mean_{.col}"))

yeastdata3

# A tibble: 1,484 × 15
# Groups:   class [10]
     mcg   gvh   alm   mit   erl   pox   vac class mean_mcg mean_gvh mean_alm
   <dbl> <dbl> <dbl> <dbl> <dbl> <dbl> <dbl> <chr>    <dbl>    <dbl>    <dbl>
 1  0.58  0.61  0.47  0.13   0.5   0    0.48 MIT      0.521    0.533    0.517
 2  0.43  0.67  0.48  0.27   0.5   0    0.53 MIT      0.521    0.533    0.517
 3  0.64  0.62  0.49  0.15   0.5   0    0.53 MIT      0.521    0.533    0.517
 4  0.58  0.44  0.57  0.13   0.5   0    0.54 NUC      0.452    0.456    0.529
 5  0.42  0.44  0.48  0.54   0.5   0    0.48 MIT      0.521    0.533    0.517
 6  0.51  0.4   0.56  0.17   0.5   0.5  0.49 CYT      0.481    0.470    0.535
 7  0.5   0.54  0.48  0.65   0.5   0    0.53 MIT      0.521    0.533    0.517
 8  0.48  0.45  0.59  0.2    0.5   0    0.58 NUC      0.452    0.456    0.529
 9  0.55  0.5   0.66  0.36   0.5   0    0.49 MIT      0.521    0.533    0.517
10  0.4   0.39  0.6   0.15   0.5   0    0.58 CYT      0.481    0.470    0.535
# ℹ 1,474 more rows
# ℹ 4 more variables: mean_mit <dbl>, mean_erl <dbl>, mean_pox <dbl>,
#   mean_vac <dbl>

Task 3: Combining Excel and delimited data

There is an excel version of the white wine data set available at https://www4.stat.ncsu.edu/~online/ datasets/white-wine.xlsx. • Download this file • Place it in a folder you know (such as your working directory for your project) • Import the data from the first sheet using the readxl package • Print out the tibble (just call the object name)

whitewine<-read_xlsx("white-wine.xlsx",
                     sheet = "white-wine")

whitewine

# A tibble: 4,898 × 12
   `fixed acidity` `volatile acidity` `citric acid` `residual sugar` chlorides
             <dbl>              <dbl>         <dbl>            <dbl>     <dbl>
 1               7               0.27          0.36             20.7     0.045
 2              63               0.3           0.34              1.6     0.049
 3              81               0.28          0.4               6.9     0.05 
 4              72               0.23          0.32              8.5     0.058
 5              72               0.23          0.32              8.5     0.058
 6              81               0.28          0.4               6.9     0.05 
 7              62               0.32          0.16              7       0.045
 8               7               0.27          0.36             20.7     0.045
 9              63               0.3           0.34              1.6     0.049
10              81               0.22          0.43              1.5     0.044
# ℹ 4,888 more rows
# ℹ 7 more variables: `free sulfur dioxide` <dbl>,
#   `total sulfur dioxide` <dbl>, density <dbl>, pH <dbl>, sulphates <dbl>,
#   alcohol <dbl>, quality <dbl>
…
whitewine2

# A tibble: 4,898 × 12
   fixed_acidity volatile_acidity citric_acid residual_sugar chlorides
           <dbl>            <dbl>       <dbl>          <dbl>     <dbl>
 1             7             0.27        0.36           20.7     0.045
 2            63             0.3         0.34            1.6     0.049
 3            81             0.28        0.4             6.9     0.05 
 4            72             0.23        0.32            8.5     0.058
 5            72             0.23        0.32            8.5     0.058
 6            81             0.28        0.4             6.9     0.05 
 7            62             0.32        0.16            7       0.045
 8             7             0.27        0.36           20.7     0.045
 9            63             0.3         0.34            1.6     0.049
10            81             0.22        0.43            1.5     0.044
# ℹ 4,888 more rows
# ℹ 7 more variables: free_sulfur_dioxide <dbl>, total_sulfur_dioxide <dbl>,
#   density <dbl>, pH <dbl>, sulphates <dbl>, alcohol <dbl>, quality <dbl>

Lastly, add a column to this data set to indicate the wines are white. That is, add a column that has values of ‘white’ for every observation.

whitewine3<-whitewine2 %>% 
  mutate("color" = "white")

whitewine3

# A tibble: 4,898 × 13
   fixed_acidity volatile_acidity citric_acid residual_sugar chlorides
           <dbl>            <dbl>       <dbl>          <dbl>     <dbl>
 1             7             0.27        0.36           20.7     0.045
 2            63             0.3         0.34            1.6     0.049
 3            81             0.28        0.4             6.9     0.05 
 4            72             0.23        0.32            8.5     0.058
 5            72             0.23        0.32            8.5     0.058
 6            81             0.28        0.4             6.9     0.05 
 7            62             0.32        0.16            7       0.045
 8             7             0.27        0.36           20.7     0.045
 9            63             0.3         0.34            1.6     0.049
10            81             0.22        0.43            1.5     0.044
# ℹ 4,888 more rows
# ℹ 8 more variables: free_sulfur_dioxide <dbl>, total_sulfur_dioxide <dbl>,
#   density <dbl>, pH <dbl>, sulphates <dbl>, alcohol <dbl>, quality <dbl>,
#   color <chr>
…
redwine3<-redwine2 %>% 
  mutate("color" = "red")

redwine3

# A tibble: 1,599 × 13
   fixed_acidity volatile_acidity citric_acid residual_sugar chlorides
           <dbl> <chr>            <chr>                <dbl> <chr>    
 1            74 0.7              0                       19 0.076    
 2            78 0.88             0                       26 0.098    
 3            78 0.76             0.04                    23 0.092    
 4           112 0.28             0.56                    19 0.075    
 5            74 0.7              0                       19 0.076    
 6            74 0.66             0                       18 0.075    
 7            79 0.6              0.06                    16 0.069    
 8            73 0.65             0                       12 0.065    
 9            78 0.58             0.02                     2 0.073    
10            75 0.5              0.36                    61 0.071    
# ℹ 1,589 more rows
# ℹ 8 more variables: free_sulfur_dioxide <dbl>, total_sulfur_dioxide <dbl>,
#   density <chr>, pH <dbl>, sulphates <chr>, alcohol <dbl>, quality <dbl>,
#   color <chr>

Combine these two data sets into one data set. They both have the exact same columns so this is an easy append task! • Use the dplyr::bind_rows() function (see the help) to create one tibble containing all of the wine data.

class(whitewine3$volatile_acidity) <- "character"
class(whitewine3$citric_acid) <- "character"
class(whitewine3$chlorides) <- "character"
class(whitewine3$density) <- "character"
class(whitewine3$sulphates) <- "character"

totalwine<-bind_rows(redwine3, whitewine3) %>% 
  mutate(color = ifelse(color == "red", "red","white") )

totalwine

# A tibble: 6,497 × 13
   fixed_acidity volatile_acidity citric_acid residual_sugar chlorides
           <dbl> <chr>            <chr>                <dbl> <chr>    
 1            74 0.7              0                       19 0.076    
 2            78 0.88             0                       26 0.098    
 3            78 0.76             0.04                    23 0.092    
 4           112 0.28             0.56                    19 0.075    
 5            74 0.7              0                       19 0.076    
 6            74 0.66             0                       18 0.075    
 7            79 0.6              0.06                    16 0.069    
 8            73 0.65             0                       12 0.065    
 9            78 0.58             0.02                     2 0.073    
10            75 0.5              0.36                    61 0.071    
# ℹ 6,487 more rows
# ℹ 8 more variables: free_sulfur_dioxide <dbl>, total_sulfur_dioxide <dbl>,
#   density <chr>, pH <dbl>, sulphates <chr>, alcohol <dbl>, quality <dbl>,
#   color <chr>

Start a chain on your new combined data object to filter the data to only look at high-quality wines (quality > 6.5) and wines that have a reasonable alcohol value (alcohol < 132).

totalwinefiltered<-totalwine %>% 
  filter(quality > 6.5 & alcohol < 132)

totalwinefiltered

# A tibble: 1,198 × 13
   fixed_acidity volatile_acidity citric_acid residual_sugar chlorides
           <dbl> <chr>            <chr>                <dbl> <chr>    
 1            73 0.65             0                       12 0.065    
 2            78 0.58             0.02                     2 0.073    
 3            85 0.28             0.56                    18 0.092    
 4            81 0.38             0.28                    21 0.066    
 5            75 0.52             0.16                    19 0.085    
 6             8 0.59             0.16                    18 0.065    
 7            54 0.835            0.08                    12 0.046    
 8            96 0.32             0.47                    14 0.056    
 9           128 0.3              0.74                    26 0.095    
10           128 0.3              0.74                    26 0.095    
# ℹ 1,188 more rows
# ℹ 8 more variables: free_sulfur_dioxide <dbl>, total_sulfur_dioxide <dbl>,
#   density <chr>, pH <dbl>, sulphates <chr>, alcohol <dbl>, quality <dbl>,
#   color <chr>
…
